<svg version="1.1" id="Layer_1" xmlns="http://www.w3.org/2000/svg" xmlns:xlink="http://www.w3.org/1999/xlink" x="0px" y="0px"
	 width="100%" viewBox="0 0 2000 2250" enable-background="new 0 0 2000 2250" xml:space="preserve">
<path fill="#000000" opacity="1.000000" stroke="none" 
	d="
M1.999996,982.000000 
	C2.000000,655.403259 2.000000,328.806519 2.000000,2.209759 
	C2.263342,2.139840 2.526684,2.008626 2.790026,2.008623 
	C668.980774,1.999976 1335.171509,2.000000 2002.000000,2.000000 
	C2002.000000,314.053436 2002.000000,626.107300 2001.335693,939.788574 
	C1999.900146,939.346008 1998.592529,937.314514 1998.441406,935.200195 
	C1996.973755,914.674622 1996.217407,894.085693 1994.260864,873.610107 
	C1990.410889,833.322205 1986.606323,793.008606 1981.506958,752.867737 
	C1976.609375,714.314392 1968.858643,676.269348 1958.633301,638.668396 
	C1948.212280,600.347778 1928.345215,568.142273 1900.738037,540.103027 
	C1875.480347,514.449890 1848.435181,490.822205 1820.369751,468.361908 
	C1762.616699,422.143158 1701.753296,380.290802 1639.627686,340.214874 
	C1551.482300,283.354279 1460.800293,230.857681 1367.656982,182.664673 
	C1310.622070,153.154419 1252.811768,125.181862 1193.295654,100.938972 
	C1145.229126,81.359886 1096.714966,63.068623 1045.547241,52.989090 
	C1027.876709,49.508171 1010.021301,46.917305 992.068542,48.557354 
	C960.507874,51.440525 930.019714,59.530148 899.883057,69.166992 
	C833.511353,90.390732 769.860046,118.285118 707.382812,148.762604 
	C660.741821,171.514908 614.649719,195.491058 569.101990,220.366440 
	C455.362915,282.483734 345.254639,350.490173 240.614853,427.098511 
	C193.592072,461.524567 148.176071,497.877899 107.018929,539.358826 
	C78.511238,568.090759 58.365742,601.208618 47.742371,640.539673 
	C32.792431,695.888977 24.636398,752.322693 18.371147,809.120789 
	C16.370033,827.261963 14.957303,845.471558 13.491031,863.667297 
	C11.652858,886.478027 9.868399,909.295837 8.383864,932.131531 
	C7.392750,947.377258 7.012136,962.662170 6.223944,977.922546 
	C6.128129,979.777649 5.195572,981.589600 4.650811,983.421509 
	C3.767210,982.947693 2.883600,982.473877 1.999996,982.000000 
z"/>
<path fill="#000000" opacity="1.000000" stroke="none" 
	d="
M2002.000000,1316.000000 
	C2002.000000,1627.933716 2002.000000,1939.867310 2002.000000,2251.801025 
	C2001.733154,2251.867432 2001.466187,2251.991699 2001.199219,2251.991699 
	C1335.007568,2252.000000 668.815918,2252.000000 2.000000,2252.000000 
	C2.000000,1917.279907 2.000000,1582.559326 2.841300,1246.803223 
	C4.334608,1247.537842 5.479001,1249.285400 5.562175,1251.082153 
	C6.361177,1268.342163 6.794783,1285.620117 7.699725,1302.873779 
	C8.829868,1324.421265 9.905220,1345.984497 11.722652,1367.480225 
	C14.740950,1403.179443 17.812468,1438.888550 21.812187,1474.486694 
	C26.895470,1519.728638 34.860802,1564.476196 46.083881,1608.676880 
	C56.330017,1649.030029 75.013519,1684.470581 105.023460,1713.322510 
	C127.791359,1735.211792 150.912643,1756.849487 175.159424,1777.060303 
	C224.284149,1818.008179 276.653229,1854.630005 329.845459,1890.109741 
	C430.186127,1957.037842 534.151611,2017.798340 641.195068,2073.275146 
	C695.250610,2101.290039 750.113586,2127.697998 806.421021,2150.991211 
	C852.856812,2170.200684 899.823975,2187.788574 948.826904,2199.464111 
	C983.314392,2207.681152 1017.643921,2208.505615 1052.484741,2200.664551 
	C1094.824341,2191.135986 1135.622437,2177.098633 1175.794067,2161.107666 
	C1264.952637,2125.616699 1350.707153,2082.905273 1434.572388,2036.474243 
	C1484.614624,2008.768921 1534.067627,1979.928345 1582.981934,1950.272705 
	C1659.580322,1903.833008 1734.006714,1854.080322 1804.723389,1798.970215 
	C1842.809448,1769.289673 1879.849609,1738.410889 1912.185059,1702.329102 
	C1928.519287,1684.102295 1942.590332,1664.381470 1950.395508,1640.892700 
	C1955.215332,1626.388306 1960.056519,1611.837769 1963.765869,1597.026978 
	C1978.484619,1538.258179 1985.652954,1478.259521 1991.556396,1418.116699 
	C1994.376343,1389.387329 1995.995117,1360.539429 1998.107300,1331.741577 
	C1998.471436,1326.777466 1998.424927,1321.779541 1998.907104,1316.830200 
	C1999.052002,1315.341553 2000.216309,1313.473389 2002.000000,1316.000000 
z"/>
<path fill="#007FFD" opacity="1.000000" stroke="none" 
	d="
M2002.000000,1315.062988 
	C2000.216309,1313.473389 1999.052002,1315.341553 1998.907104,1316.830200 
	C1998.424927,1321.779541 1998.471436,1326.777466 1998.107300,1331.741577 
	C1995.995117,1360.539429 1994.376343,1389.387329 1991.556396,1418.116699 
	C1985.652954,1478.259521 1978.484619,1538.258179 1963.765869,1597.026978 
	C1960.056519,1611.837769 1955.215332,1626.388306 1950.395508,1640.892700 
	C1942.590332,1664.381470 1928.519287,1684.102295 1912.185059,1702.329102 
	C1879.849609,1738.410889 1842.809448,1769.289673 1804.723389,1798.970215 
	C1734.006714,1854.080322 1659.580322,1903.833008 1582.981934,1950.272705 
	C1534.067627,1979.928345 1484.614624,2008.768921 1434.572388,2036.474243 
	C1350.707153,2082.905273 1264.952637,2125.616699 1175.794067,2161.107666 
	C1135.622437,2177.098633 1094.824341,2191.135986 1052.484741,2200.664551 
	C1017.643921,2208.505615 983.314392,2207.681152 948.826904,2199.464111 
	C899.823975,2187.788574 852.856812,2170.200684 806.421021,2150.991211 
	C750.113586,2127.697998 695.250610,2101.290039 641.195068,2073.275146 
	C534.151611,2017.798340 430.186127,1957.037842 329.845459,1890.109741 
	C276.653229,1854.630005 224.284149,1818.008179 175.159424,1777.060303 
	C150.912643,1756.849487 127.791359,1735.211792 105.023460,1713.322510 
	C75.013519,1684.470581 56.330017,1649.030029 46.083881,1608.676880 
	C34.860802,1564.476196 26.895470,1519.728638 21.812187,1474.486694 
	C17.812468,1438.888550 14.740950,1403.179443 11.722652,1367.480225 
	C9.905220,1345.984497 8.829868,1324.421265 7.699725,1302.873779 
	C6.794783,1285.620117 6.361177,1268.342163 5.562175,1251.082153 
	C5.479001,1249.285400 4.334608,1247.537842 2.841300,1245.883789 
	C2.000000,1158.624878 2.000000,1071.249756 1.999996,982.937317 
	C2.883600,982.473877 3.767210,982.947693 4.650811,983.421509 
	C5.195572,981.589600 6.128129,979.777649 6.223944,977.922546 
	C7.012136,962.662170 7.392750,947.377258 8.383864,932.131531 
	C9.868399,909.295837 11.652858,886.478027 13.491031,863.667297 
	C14.957303,845.471558 16.370033,827.261963 18.371147,809.120789 
	C24.636398,752.322693 32.792431,695.888977 47.742371,640.539673 
	C58.365742,601.208618 78.511238,568.090759 107.018929,539.358826 
	C148.176071,497.877899 193.592072,461.524567 240.614853,427.098511 
	C345.254639,350.490173 455.362915,282.483734 569.101990,220.366440 
	C614.649719,195.491058 660.741821,171.514908 707.382812,148.762604 
	C769.860046,118.285118 833.511353,90.390732 899.883057,69.166992 
	C930.019714,59.530148 960.507874,51.440525 992.068542,48.557354 
	C1010.021301,46.917305 1027.876709,49.508171 1045.547241,52.989090 
	C1096.714966,63.068623 1145.229126,81.359886 1193.295654,100.938972 
	C1252.811768,125.181862 1310.622070,153.154419 1367.656982,182.664673 
	C1460.800293,230.857681 1551.482300,283.354279 1639.627686,340.214874 
	C1701.753296,380.290802 1762.616699,422.143158 1820.369751,468.361908 
	C1848.435181,490.822205 1875.480347,514.449890 1900.738037,540.103027 
	C1928.345215,568.142273 1948.212280,600.347778 1958.633301,638.668396 
	C1968.858643,676.269348 1976.609375,714.314392 1981.506958,752.867737 
	C1986.606323,793.008606 1990.410889,833.322205 1994.260864,873.610107 
	C1996.217407,894.085693 1996.973755,914.674622 1998.441406,935.200195 
	C1998.592529,937.314514 1999.900146,939.346008 2001.335693,940.707947 
	C2002.000000,1050.041748 2002.000000,1160.083618 2001.316040,1271.004883 
	C2001.088013,1272.589600 2001.544067,1273.294800 2002.000000,1274.000000 
	C2002.000000,1287.375244 2002.000000,1300.750610 2002.000000,1315.062988 
M291.867554,1787.136719 
	C330.601288,1813.054443 368.946350,1839.577026 408.146851,1864.768433 
	C499.749115,1923.634399 594.414124,1977.240967 691.326660,2026.848877 
	C742.273743,2052.927979 793.975830,2077.466553 846.943848,2099.207031 
	C886.031616,2115.250488 925.566772,2130.106934 966.990234,2139.137207 
	C982.272949,2142.469238 997.788513,2145.066162 1013.476135,2143.428955 
	C1042.057373,2140.446777 1069.567139,2132.535645 1096.615723,2123.272949 
	C1156.499390,2102.766113 1214.449097,2077.439209 1270.913330,2049.038574 
	C1328.860229,2019.892090 1386.383789,1989.786987 1443.025391,1958.188477 
	C1547.753052,1899.764526 1649.379517,1836.286865 1745.828491,1764.843262 
	C1786.215088,1734.927246 1825.731689,1703.877441 1859.858398,1666.653442 
	C1871.805420,1653.622192 1882.711670,1639.857178 1889.700073,1623.324585 
	C1898.296021,1602.988403 1903.517822,1581.702148 1908.012817,1560.210938 
	C1915.770264,1523.121826 1920.994263,1485.646973 1924.371460,1447.918213 
	C1927.565430,1412.236206 1930.996704,1376.567627 1933.536377,1340.837158 
	C1935.537842,1312.678345 1936.668945,1284.445312 1937.592407,1256.225708 
	C1938.636841,1224.305786 1939.454590,1192.365601 1939.564453,1160.431641 
	C1939.675537,1128.153809 1938.961914,1095.869507 1938.310547,1063.593994 
	C1937.639404,1030.338013 1936.816650,997.081909 1935.654785,963.840027 
	C1934.959106,943.939270 1933.491943,924.065430 1932.360718,904.180054 
	C1931.454956,888.259399 1931.093628,872.283325 1929.501587,856.431213 
	C1926.121216,822.771179 1922.387939,789.139954 1918.253906,755.564087 
	C1914.068359,721.569824 1907.829956,687.932739 1898.129272,655.022705 
	C1893.019775,637.688477 1886.588745,620.839355 1875.039429,606.694153 
	C1865.163452,594.598267 1855.130493,582.475708 1843.924561,571.651306 
	C1817.107910,545.748047 1788.229858,522.201294 1758.488281,499.701904 
	C1702.946899,457.685059 1645.087036,419.085724 1586.206055,381.956787 
	C1500.294922,327.783356 1412.236816,277.325714 1321.688843,231.378220 
	C1274.839233,207.604904 1227.047119,185.612473 1179.123657,164.054092 
	C1136.349243,144.812012 1092.477173,128.214752 1046.667847,117.359047 
	C1025.501709,112.343163 1004.270996,109.822968 982.442810,113.153282 
	C951.002197,117.950165 921.041443,127.830330 891.331177,138.574036 
	C848.138367,154.193222 805.842651,172.060028 764.713501,192.478989 
	C713.457520,217.925552 661.954224,242.991684 611.744385,270.396271 
	C556.574707,300.507965 502.327332,332.381805 448.456543,364.782227 
	C383.967407,403.569031 321.290680,445.200439 260.906006,490.193054 
	C224.056244,517.649902 188.260254,546.343079 155.625671,578.820618 
	C132.290039,602.044006 115.428505,628.737915 106.961845,661.003052 
	C94.438751,708.726807 87.637405,757.335754 82.400360,806.215027 
	C79.148918,836.561890 76.675041,867.002625 74.438766,897.444397 
	C72.614426,922.278564 71.285217,947.163574 70.415504,972.049805 
	C69.346619,1002.635498 68.977921,1033.245728 68.322578,1063.845703 
	C68.251221,1067.177246 68.289734,1070.511108 68.270248,1073.843872 
	C68.073532,1107.492554 67.275749,1141.151123 67.832413,1174.787354 
	C68.497940,1215.001221 70.130630,1255.203369 71.716492,1295.395874 
	C72.632729,1318.617676 73.845963,1341.845215 75.701370,1365.008179 
	C78.694931,1402.379761 81.830574,1439.753296 85.830627,1477.026855 
	C89.943993,1515.356567 96.245033,1553.381226 106.263596,1590.677368 
	C111.809692,1611.323975 118.921387,1631.339600 132.210541,1648.550049 
	C151.033966,1672.927979 173.110764,1694.222046 196.886917,1713.518799 
	C227.609375,1738.453247 259.372162,1762.106079 291.867554,1787.136719 
z"/>
<path fill="#002A56" opacity="1.000000" stroke="none" 
	d="
M2002.000000,1273.500000 
	C2001.544067,1273.294800 2001.088013,1272.589600 2001.316040,1271.942139 
	C2002.000000,1272.000000 2002.000000,1273.000000 2002.000000,1273.500000 
z"/>
<path fill="#000306" opacity="1.000000" stroke="none" 
	d="
M291.277283,1786.723755 
	C259.372162,1762.106079 227.609375,1738.453247 196.886917,1713.518799 
	C173.110764,1694.222046 151.033966,1672.927979 132.210541,1648.550049 
	C118.921387,1631.339600 111.809692,1611.323975 106.263596,1590.677368 
	C96.245033,1553.381226 89.943993,1515.356567 85.830627,1477.026855 
	C81.830574,1439.753296 78.694931,1402.379761 75.701370,1365.008179 
	C73.845963,1341.845215 72.632729,1318.617676 71.716492,1295.395874 
	C70.130630,1255.203369 68.497940,1215.001221 67.832413,1174.787354 
	C67.275749,1141.151123 68.073532,1107.492554 68.270248,1073.843872 
	C68.289734,1070.511108 68.251221,1067.177246 68.322578,1063.845703 
	C68.977921,1033.245728 69.346619,1002.635498 70.415504,972.049805 
	C71.285217,947.163574 72.614426,922.278564 74.438766,897.444397 
	C76.675041,867.002625 79.148918,836.561890 82.400360,806.215027 
	C87.637405,757.335754 94.438751,708.726807 106.961845,661.003052 
	C115.428505,628.737915 132.290039,602.044006 155.625671,578.820618 
	C188.260254,546.343079 224.056244,517.649902 260.906006,490.193054 
	C321.290680,445.200439 383.967407,403.569031 448.456543,364.782227 
	C502.327332,332.381805 556.574707,300.507965 611.744385,270.396271 
	C661.954224,242.991684 713.457520,217.925552 764.713501,192.478989 
	C805.842651,172.060028 848.138367,154.193222 891.331177,138.574036 
	C921.041443,127.830330 951.002197,117.950165 982.442810,113.153282 
	C1004.270996,109.822968 1025.501709,112.343163 1046.667847,117.359047 
	C1092.477173,128.214752 1136.349243,144.812012 1179.123657,164.054092 
	C1227.047119,185.612473 1274.839233,207.604904 1321.688843,231.378220 
	C1412.236816,277.325714 1500.294922,327.783356 1586.206055,381.956787 
	C1645.087036,419.085724 1702.946899,457.685059 1758.488281,499.701904 
	C1788.229858,522.201294 1817.107910,545.748047 1843.924561,571.651306 
	C1855.130493,582.475708 1865.163452,594.598267 1875.039429,606.694153 
	C1886.588745,620.839355 1893.019775,637.688477 1898.129272,655.022705 
	C1907.829956,687.932739 1914.068359,721.569824 1918.253906,755.564087 
	C1922.387939,789.139954 1926.121216,822.771179 1929.501587,856.431213 
	C1931.093628,872.283325 1931.454956,888.259399 1932.360718,904.180054 
	C1933.491943,924.065430 1934.959106,943.939270 1935.654785,963.840027 
	C1936.816650,997.081909 1937.639404,1030.338013 1938.310547,1063.593994 
	C1938.961914,1095.869507 1939.675537,1128.153809 1939.564453,1160.431641 
	C1939.454590,1192.365601 1938.636841,1224.305786 1937.592407,1256.225708 
	C1936.668945,1284.445312 1935.537842,1312.678345 1933.536377,1340.837158 
	C1930.996704,1376.567627 1927.565430,1412.236206 1924.371460,1447.918213 
	C1920.994263,1485.646973 1915.770264,1523.121826 1908.012817,1560.210938 
	C1903.517822,1581.702148 1898.296021,1602.988403 1889.700073,1623.324585 
	C1882.711670,1639.857178 1871.805420,1653.622192 1859.858398,1666.653442 
	C1825.731689,1703.877441 1786.215088,1734.927246 1745.828491,1764.843262 
	C1649.379517,1836.286865 1547.753052,1899.764526 1443.025391,1958.188477 
	C1386.383789,1989.786987 1328.860229,2019.892090 1270.913330,2049.038574 
	C1214.449097,2077.439209 1156.499390,2102.766113 1096.615723,2123.272949 
	C1069.567139,2132.535645 1042.057373,2140.446777 1013.476135,2143.428955 
	C997.788513,2145.066162 982.272949,2142.469238 966.990234,2139.137207 
	C925.566772,2130.106934 886.031616,2115.250488 846.943848,2099.207031 
	C793.975830,2077.466553 742.273743,2052.927979 691.326660,2026.848877 
	C594.414124,1977.240967 499.749115,1923.634399 408.146851,1864.768433 
	C368.946350,1839.577026 330.601288,1813.054443 291.277283,1786.723755 
M1832.738892,1661.740967 
	C1856.440063,1639.494385 1871.662109,1612.493530 1879.800293,1580.991577 
	C1891.969849,1533.885620 1898.598633,1485.908691 1903.556641,1437.665771 
	C1906.778809,1406.312500 1909.336670,1374.878174 1911.493286,1343.432129 
	C1913.379517,1315.929932 1914.483032,1288.368408 1915.573242,1260.818848 
	C1916.520020,1236.893677 1917.522095,1212.948486 1917.510132,1189.012451 
	C1917.487549,1144.062500 1916.893188,1099.110840 1916.253784,1054.163940 
	C1915.898926,1029.223389 1915.058716,1004.288452 1914.275024,979.356079 
	C1913.700684,961.084412 1913.311157,942.789856 1912.044067,924.560791 
	C1909.788940,892.122864 1906.968872,859.723816 1904.317017,827.314026 
	C1901.010620,786.906189 1895.682861,746.750916 1887.427979,707.065308 
	C1883.712891,689.204651 1878.743042,671.556641 1873.441772,654.085449 
	C1865.245972,627.075806 1846.890259,606.601013 1827.465942,587.340454 
	C1799.080811,559.194580 1767.970337,534.130737 1735.999390,510.180420 
	C1675.998657,465.232086 1613.453369,424.045471 1549.698730,384.657745 
	C1476.916626,339.692810 1402.568848,297.462952 1326.576050,258.196228 
	C1273.956177,231.006653 1220.748047,204.966904 1165.994019,182.243912 
	C1126.956299,166.043198 1087.546631,150.936951 1046.350830,140.977524 
	C1020.098877,134.630890 993.864014,133.691635 967.327087,139.540421 
	C933.425781,147.012344 900.811157,158.407806 868.614685,171.076035 
	C790.770691,201.705032 715.766541,238.488129 642.401001,278.443939 
	C584.553528,309.948456 527.467163,342.922150 470.869110,376.630707 
	C405.917572,415.314423 342.886230,457.045349 282.109467,502.085480 
	C242.511307,531.430603 203.895416,561.928162 169.767776,597.715820 
	C152.550659,615.770386 138.981354,635.830017 131.464081,659.997253 
	C122.544960,688.671143 116.346489,717.923828 112.407585,747.561096 
	C107.032616,788.003723 102.357353,828.565674 98.606071,869.189514 
	C95.585022,901.905334 93.957001,934.769958 92.488808,967.603333 
	C91.047539,999.834473 89.817001,1032.110596 89.863197,1064.364990 
	C89.949532,1124.635498 90.921783,1184.906128 91.756340,1245.173462 
	C92.004791,1263.115479 92.841553,1281.056030 93.735527,1298.980957 
	C94.876740,1321.863525 95.890564,1344.767578 97.785133,1367.593872 
	C100.721550,1402.972290 104.070084,1438.322876 107.775612,1473.629395 
	C111.419411,1508.348022 117.560425,1542.655151 126.000885,1576.563721 
	C133.028305,1604.795410 144.019012,1631.015747 164.749069,1651.956421 
	C181.579865,1668.958374 198.732361,1685.739868 216.797089,1701.402588 
	C258.852600,1737.866089 304.085480,1770.239014 350.298248,1801.147705 
	C387.376923,1825.947021 424.972290,1850.007446 462.860229,1873.556152 
	C534.960754,1918.368774 608.887451,1960.038696 684.427124,1998.761353 
	C720.552551,2017.279785 757.139832,2034.950806 793.979187,2052.009277 
	C842.284668,2074.377197 891.415955,2094.842529 942.765015,2109.352295 
	C964.203552,2115.410156 985.930969,2121.189941 1008.458557,2119.420166 
	C1022.616211,2118.307617 1036.806641,2115.962891 1050.643066,2112.721924 
	C1090.600342,2103.363037 1128.638550,2088.254639 1166.409546,2072.491943 
	C1224.495605,2048.251221 1281.082642,2020.815186 1336.634155,1991.301270 
	C1378.938110,1968.825562 1421.258057,1946.279419 1462.553223,1922.031738 
	C1513.910767,1891.875488 1564.548828,1860.454224 1614.898438,1828.631470 
	C1674.875977,1790.723755 1732.765625,1749.772705 1787.107056,1704.052002 
	C1802.599487,1691.017212 1816.893921,1676.558472 1832.738892,1661.740967 
z"/>
<path fill="#0080FF" opacity="1.000000" stroke="none" 
	d="
M1832.238281,1662.246826 
	C1816.893921,1676.558472 1802.599487,1691.017212 1787.107056,1704.052002 
	C1732.765625,1749.772705 1674.875977,1790.723755 1614.898438,1828.631470 
	C1564.548828,1860.454224 1513.910767,1891.875488 1462.553223,1922.031738 
	C1421.258057,1946.279419 1378.938110,1968.825562 1336.634155,1991.301270 
	C1281.082642,2020.815186 1224.495605,2048.251221 1166.409546,2072.491943 
	C1128.638550,2088.254639 1090.600342,2103.363037 1050.643066,2112.721924 
	C1036.806641,2115.962891 1022.616211,2118.307617 1008.458557,2119.420166 
	C985.930969,2121.189941 964.203552,2115.410156 942.765015,2109.352295 
	C891.415955,2094.842529 842.284668,2074.377197 793.979187,2052.009277 
	C757.139832,2034.950806 720.552551,2017.279785 684.427124,1998.761353 
	C608.887451,1960.038696 534.960754,1918.368774 462.860229,1873.556152 
	C424.972290,1850.007446 387.376923,1825.947021 350.298248,1801.147705 
	C304.085480,1770.239014 258.852600,1737.866089 216.797089,1701.402588 
	C198.732361,1685.739868 181.579865,1668.958374 164.749069,1651.956421 
	C144.019012,1631.015747 133.028305,1604.795410 126.000885,1576.563721 
	C117.560425,1542.655151 111.419411,1508.348022 107.775612,1473.629395 
	C104.070084,1438.322876 100.721550,1402.972290 97.785133,1367.593872 
	C95.890564,1344.767578 94.876740,1321.863525 93.735527,1298.980957 
	C92.841553,1281.056030 92.004791,1263.115479 91.756340,1245.173462 
	C90.921783,1184.906128 89.949532,1124.635498 89.863197,1064.364990 
	C89.817001,1032.110596 91.047539,999.834473 92.488808,967.603333 
	C93.957001,934.769958 95.585022,901.905334 98.606071,869.189514 
	C102.357353,828.565674 107.032616,788.003723 112.407585,747.561096 
	C116.346489,717.923828 122.544960,688.671143 131.464081,659.997253 
	C138.981354,635.830017 152.550659,615.770386 169.767776,597.715820 
	C203.895416,561.928162 242.511307,531.430603 282.109467,502.085480 
	C342.886230,457.045349 405.917572,415.314423 470.869110,376.630707 
	C527.467163,342.922150 584.553528,309.948456 642.401001,278.443939 
	C715.766541,238.488129 790.770691,201.705032 868.614685,171.076035 
	C900.811157,158.407806 933.425781,147.012344 967.327087,139.540421 
	C993.864014,133.691635 1020.098877,134.630890 1046.350830,140.977524 
	C1087.546631,150.936951 1126.956299,166.043198 1165.994019,182.243912 
	C1220.748047,204.966904 1273.956177,231.006653 1326.576050,258.196228 
	C1402.568848,297.462952 1476.916626,339.692810 1549.698730,384.657745 
	C1613.453369,424.045471 1675.998657,465.232086 1735.999390,510.180420 
	C1767.970337,534.130737 1799.080811,559.194580 1827.465942,587.340454 
	C1846.890259,606.601013 1865.245972,627.075806 1873.441772,654.085449 
	C1878.743042,671.556641 1883.712891,689.204651 1887.427979,707.065308 
	C1895.682861,746.750916 1901.010620,786.906189 1904.317017,827.314026 
	C1906.968872,859.723816 1909.788940,892.122864 1912.044067,924.560791 
	C1913.311157,942.789856 1913.700684,961.084412 1914.275024,979.356079 
	C1915.058716,1004.288452 1915.898926,1029.223389 1916.253784,1054.163940 
	C1916.893188,1099.110840 1917.487549,1144.062500 1917.510132,1189.012451 
	C1917.522095,1212.948486 1916.520020,1236.893677 1915.573242,1260.818848 
	C1914.483032,1288.368408 1913.379517,1315.929932 1911.493286,1343.432129 
	C1909.336670,1374.878174 1906.778809,1406.312500 1903.556641,1437.665771 
	C1898.598633,1485.908691 1891.969849,1533.885620 1879.800293,1580.991577 
	C1871.662109,1612.493530 1856.440063,1639.494385 1832.238281,1662.246826 
M1233.866211,1483.000000 
	C1233.866211,1473.003906 1233.866211,1463.007812 1233.866333,1453.011719 
	C1233.866333,1442.680786 1233.974731,1432.348511 1233.835083,1422.019409 
	C1233.702026,1412.187134 1234.529175,1402.276855 1233.067505,1391.771118 
	C1205.739014,1391.814087 1179.582764,1391.562622 1152.165649,1391.960083 
	C1152.165649,1397.541260 1152.165649,1401.781738 1152.165649,1406.022217 
	C1152.165527,1468.674194 1152.166382,1531.326172 1152.163208,1593.978149 
	C1152.162964,1596.977295 1152.031128,1599.979492 1152.131348,1602.974731 
	C1152.264893,1606.966431 1150.391479,1609.176392 1146.540894,1609.945312 
	C1144.255371,1610.401733 1142.017700,1611.100952 1139.729614,1611.541748 
	C1102.898926,1618.636963 1065.817139,1621.656982 1028.384644,1617.863892 
	C999.767395,1614.964355 973.016541,1606.403320 948.759155,1590.650391 
	C910.975647,1566.113159 887.689331,1530.950928 874.278198,1488.652344 
	C861.104736,1447.103271 857.980408,1404.368042 860.612366,1361.172485 
	C862.548950,1329.388794 869.131348,1298.488525 881.818054,1269.092407 
	C906.801697,1211.203369 948.473022,1172.740112 1010.892212,1158.684448 
	C1038.181396,1152.539429 1065.773438,1152.724609 1093.413208,1155.876953 
	C1130.137207,1160.065552 1165.466797,1168.986328 1198.130127,1186.917236 
	C1200.022095,1187.955688 1202.173584,1188.521484 1204.846069,1189.555542 
	C1213.471191,1166.934326 1221.834717,1144.999023 1230.261475,1122.897705 
	C1215.204834,1113.419189 1200.258789,1106.981934 1184.696411,1102.030151 
	C1132.650024,1085.468872 1079.396851,1079.060181 1024.912354,1083.745728 
	C971.825439,1088.310913 923.497253,1105.709595 881.273193,1138.523315 
	C830.248535,1178.176392 800.245361,1231.342651 784.012573,1292.973633 
	C773.547668,1332.706055 772.180725,1373.288330 774.027161,1414.044067 
	C775.649231,1449.847046 781.680725,1484.902344 794.013367,1518.674805 
	C827.732239,1611.012573 892.741028,1666.823608 989.452454,1685.058960 
	C1022.738098,1691.335083 1056.362671,1690.869263 1090.056519,1688.417725 
	C1134.031982,1685.218140 1177.346680,1678.124390 1220.172119,1667.834595 
	C1224.615967,1666.766846 1228.903931,1665.049072 1233.866089,1663.437500 
	C1233.866089,1603.566040 1233.866089,1544.283081 1233.866211,1483.000000 
M880.064941,694.437927 
	C868.086365,694.510620 860.650574,702.205139 860.989868,715.156738 
	C861.042236,717.154053 860.946045,719.154724 860.945923,721.153870 
	C860.942932,768.470337 860.930359,815.786865 860.967407,863.103333 
	C860.970520,867.093445 860.954773,871.138611 861.565735,875.061951 
	C862.868774,883.429077 868.534424,888.682739 876.976990,889.627075 
	C879.942932,889.958801 882.967529,889.805664 885.965332,889.806641 
	C917.953918,889.816772 949.942627,889.791016 981.931091,889.843201 
	C985.791748,889.849548 989.651733,890.257629 994.057190,890.510803 
	C994.564514,901.404785 995.405090,911.183105 993.482483,921.464050 
	C989.435059,921.671265 986.168945,921.962524 982.901123,921.982971 
	C972.571838,922.047546 962.241882,921.989746 951.912354,922.029053 
	C949.585876,922.037842 947.186951,921.925964 944.949768,922.434448 
	C940.575073,923.428894 937.908020,926.280212 938.044739,930.929504 
	C938.168213,935.131836 940.722595,937.716614 944.729797,938.522461 
	C947.316284,939.042603 950.023254,939.124512 952.676514,939.127441 
	C986.331177,939.164124 1019.985901,939.182739 1053.640381,939.099609 
	C1056.928101,939.091492 1060.339600,938.803894 1063.467407,937.879944 
	C1066.990845,936.839111 1069.309082,933.630737 1068.393555,930.193970 
	C1067.647827,927.394348 1065.287964,924.468567 1062.821411,922.860474 
	C1060.866943,921.586243 1057.666626,922.059570 1055.017700,922.042725 
	C1043.688721,921.970764 1032.358643,922.068298 1021.030334,921.955444 
	C1018.197327,921.927246 1015.369873,921.345825 1012.158386,920.974548 
	C1011.978455,910.129211 1011.163086,900.311340 1012.802307,889.813538 
	C1017.825806,889.813538 1021.791382,889.813721 1025.756958,889.813477 
	C1058.745239,889.811218 1091.733521,889.871338 1124.721558,889.777954 
	C1139.363770,889.736450 1145.852783,883.589844 1145.883789,869.390015 
	C1145.996704,817.742004 1146.000366,766.093506 1145.875488,714.445557 
	C1145.843506,701.213257 1139.424683,694.705750 1126.246338,694.486389 
	C1109.590210,694.209167 1092.925171,694.317078 1076.265747,694.453735 
	C1068.033936,694.521240 1063.959229,697.488281 1063.796265,702.882690 
	C1063.620850,708.686523 1067.776367,711.641418 1076.761475,711.714294 
	C1090.089233,711.822388 1103.418701,711.701782 1116.746826,711.783569 
	C1120.272949,711.805237 1123.796631,712.212158 1127.601074,712.460388 
	C1127.601074,766.013550 1127.601074,818.481140 1127.601074,871.606628 
	C1124.084595,871.952576 1121.185059,872.485229 1118.285278,872.487000 
	C1041.645874,872.532837 965.006531,872.535461 888.367188,872.482544 
	C885.206970,872.480347 882.047119,871.868958 879.186951,871.572449 
	C877.186157,858.197510 877.722473,720.356262 879.818237,712.283386 
	C882.831970,712.115234 886.083435,711.793030 889.336426,711.777161 
	C901.998291,711.715271 914.660583,711.757446 927.322754,711.743591 
	C929.654114,711.741028 932.010437,711.859436 934.311646,711.572449 
	C939.919128,710.873230 943.616577,707.239563 943.487976,702.828613 
	C943.368591,698.732971 940.012024,695.403625 934.830078,694.667419 
	C932.209473,694.295288 929.511108,694.411987 926.847778,694.409180 
	C911.853149,694.393494 896.858459,694.408630 880.064941,694.437927 
M995.502747,655.000671 
	C995.503174,708.962219 995.498596,762.923767 995.515869,816.885315 
	C995.516907,820.212097 995.477417,823.561951 995.835876,826.859802 
	C996.284180,830.984070 998.753723,833.510254 1002.944153,833.987610 
	C1007.007080,834.450439 1010.847229,831.779053 1011.611633,827.395569 
	C1012.234192,823.824646 1012.073425,820.098206 1012.074768,816.440674 
	C1012.097534,753.485535 1012.165955,690.530212 1011.995422,627.575500 
	C1011.974670,619.934509 1012.762939,614.033569 1020.069580,609.004700 
	C1028.875854,602.943726 1030.367798,592.835022 1027.554199,582.848816 
	C1024.912109,573.471313 1018.220215,567.573547 1008.546814,565.735474 
	C998.087219,563.748047 989.442505,567.195007 983.056519,575.696167 
	C974.766052,586.732727 976.655701,602.010864 988.421753,610.094849 
	C994.362549,614.176453 995.786804,618.622559 995.579712,625.023926 
	C995.278198,634.340820 995.502075,643.674805 995.502747,655.000671 
M1049.617310,737.000000 
	C1049.618164,712.375061 1049.608765,687.750122 1049.633423,663.125183 
	C1049.636353,660.134277 1048.994385,656.767639 1050.137085,654.249451 
	C1051.508911,651.226868 1054.303711,646.882019 1056.779053,646.676025 
	C1066.449707,645.871399 1076.409058,642.178162 1084.391724,653.448792 
	C1092.825317,665.356384 1110.128662,665.131287 1120.624146,655.031067 
	C1131.288574,644.768372 1131.007568,627.577820 1120.013428,617.679626 
	C1109.278687,608.015015 1092.236694,608.654053 1083.695557,620.315552 
	C1079.046631,626.663025 1074.028564,628.568909 1066.964478,627.883850 
	C1064.987549,627.692078 1062.973389,627.834229 1060.978027,627.890930 
	C1043.447144,628.388733 1032.228271,639.241943 1032.130615,656.812378 
	C1031.897461,698.739868 1032.003174,740.669617 1032.084717,782.598267 
	C1032.100342,790.611816 1035.289917,794.862732 1040.651978,794.997437 
	C1046.046265,795.132874 1049.238770,790.846130 1049.581665,782.924866 
	C1049.667847,780.931641 1049.615967,778.932251 1049.616333,776.935669 
	C1049.618164,764.290466 1049.616821,751.645203 1049.617310,737.000000 
M923.196716,620.013916 
	C920.924316,618.078491 918.868591,615.782288 916.344238,614.266541 
	C900.207886,604.577209 879.215149,615.839539 878.112671,634.667725 
	C877.471680,645.614807 883.911072,655.765625 894.150085,659.948425 
	C904.382080,664.128479 916.588440,661.762390 922.910583,652.606873 
	C927.191589,646.407288 931.968079,644.520813 938.777100,645.246521 
	C941.085510,645.492554 943.448547,645.200623 945.764709,645.404053 
	C953.274048,646.063782 956.455933,649.106079 957.273621,656.605469 
	C957.597107,659.572510 957.461914,662.594299 957.462769,665.591125 
	C957.473450,703.230591 957.463013,740.869995 957.486145,778.509460 
	C957.488037,781.501709 957.416321,784.538452 957.880615,787.475281 
	C958.539612,791.643860 961.392395,793.807556 965.538513,793.962708 
	C969.704163,794.118652 972.726257,792.052246 973.689270,788.039856 
	C974.375916,785.178650 974.292053,782.096741 974.295776,779.113037 
	C974.334473,748.135437 974.322144,717.157837 974.321777,686.180237 
	C974.321716,676.853638 973.836731,667.497498 974.412354,658.206787 
	C975.554688,639.768677 961.231628,626.231812 944.234192,627.608948 
	C941.256592,627.850159 938.204102,627.323120 935.251648,627.684937 
	C929.759766,628.358032 926.418396,625.784363 923.196716,620.013916 
z"/>
<path fill="#48F4B3" opacity="1.000000" stroke="none" 
	d="
M1233.866211,1484.000000 
	C1233.866089,1544.283081 1233.866089,1603.566040 1233.866089,1663.437500 
	C1228.903931,1665.049072 1224.615967,1666.766846 1220.172119,1667.834595 
	C1177.346680,1678.124390 1134.031982,1685.218140 1090.056519,1688.417725 
	C1056.362671,1690.869263 1022.738098,1691.335083 989.452454,1685.058960 
	C892.741028,1666.823608 827.732239,1611.012573 794.013367,1518.674805 
	C781.680725,1484.902344 775.649231,1449.847046 774.027161,1414.044067 
	C772.180725,1373.288330 773.547668,1332.706055 784.012573,1292.973633 
	C800.245361,1231.342651 830.248535,1178.176392 881.273193,1138.523315 
	C923.497253,1105.709595 971.825439,1088.310913 1024.912354,1083.745728 
	C1079.396851,1079.060181 1132.650024,1085.468872 1184.696411,1102.030151 
	C1200.258789,1106.981934 1215.204834,1113.419189 1230.261475,1122.897705 
	C1221.834717,1144.999023 1213.471191,1166.934326 1204.846069,1189.555542 
	C1202.173584,1188.521484 1200.022095,1187.955688 1198.130127,1186.917236 
	C1165.466797,1168.986328 1130.137207,1160.065552 1093.413208,1155.876953 
	C1065.773438,1152.724609 1038.181396,1152.539429 1010.892212,1158.684448 
	C948.473022,1172.740112 906.801697,1211.203369 881.818054,1269.092407 
	C869.131348,1298.488525 862.548950,1329.388794 860.612366,1361.172485 
	C857.980408,1404.368042 861.104736,1447.103271 874.278198,1488.652344 
	C887.689331,1530.950928 910.975647,1566.113159 948.759155,1590.650391 
	C973.016541,1606.403320 999.767395,1614.964355 1028.384644,1617.863892 
	C1065.817139,1621.656982 1102.898926,1618.636963 1139.729614,1611.541748 
	C1142.017700,1611.100952 1144.255371,1610.401733 1146.540894,1609.945312 
	C1150.391479,1609.176392 1152.264893,1606.966431 1152.131348,1602.974731 
	C1152.031128,1599.979492 1152.162964,1596.977295 1152.163208,1593.978149 
	C1152.166382,1531.326172 1152.165527,1468.674194 1152.165649,1406.022217 
	C1152.165649,1401.781738 1152.165649,1397.541260 1152.165649,1391.960083 
	C1179.582764,1391.562622 1205.739014,1391.814087 1233.067505,1391.771118 
	C1234.529175,1402.276855 1233.702026,1412.187134 1233.835083,1422.019409 
	C1233.974731,1432.348511 1233.866333,1442.680786 1233.866333,1453.011719 
	C1233.866211,1463.007812 1233.866211,1473.003906 1233.866211,1484.000000 
z"/>
<path fill="#45EFB6" opacity="1.000000" stroke="none" 
	d="
M880.964355,694.425598 
	C896.858459,694.408630 911.853149,694.393494 926.847778,694.409180 
	C929.511108,694.411987 932.209473,694.295288 934.830078,694.667419 
	C940.012024,695.403625 943.368591,698.732971 943.487976,702.828613 
	C943.616577,707.239563 939.919128,710.873230 934.311646,711.572449 
	C932.010437,711.859436 929.654114,711.741028 927.322754,711.743591 
	C914.660583,711.757446 901.998291,711.715271 889.336426,711.777161 
	C886.083435,711.793030 882.831970,712.115234 879.818237,712.283386 
	C877.722473,720.356262 877.186157,858.197510 879.186951,871.572449 
	C882.047119,871.868958 885.206970,872.480347 888.367188,872.482544 
	C965.006531,872.535461 1041.645874,872.532837 1118.285278,872.487000 
	C1121.185059,872.485229 1124.084595,871.952576 1127.601074,871.606628 
	C1127.601074,818.481140 1127.601074,766.013550 1127.601074,712.460388 
	C1123.796631,712.212158 1120.272949,711.805237 1116.746826,711.783569 
	C1103.418701,711.701782 1090.089233,711.822388 1076.761475,711.714294 
	C1067.776367,711.641418 1063.620850,708.686523 1063.796265,702.882690 
	C1063.959229,697.488281 1068.033936,694.521240 1076.265747,694.453735 
	C1092.925171,694.317078 1109.590210,694.209167 1126.246338,694.486389 
	C1139.424683,694.705750 1145.843506,701.213257 1145.875488,714.445557 
	C1146.000366,766.093506 1145.996704,817.742004 1145.883789,869.390015 
	C1145.852783,883.589844 1139.363770,889.736450 1124.721558,889.777954 
	C1091.733521,889.871338 1058.745239,889.811218 1025.756958,889.813477 
	C1021.791382,889.813721 1017.825806,889.813538 1012.802307,889.813538 
	C1011.163086,900.311340 1011.978455,910.129211 1012.158386,920.974548 
	C1015.369873,921.345825 1018.197327,921.927246 1021.030334,921.955444 
	C1032.358643,922.068298 1043.688721,921.970764 1055.017700,922.042725 
	C1057.666626,922.059570 1060.866943,921.586243 1062.821411,922.860474 
	C1065.287964,924.468567 1067.647827,927.394348 1068.393555,930.193970 
	C1069.309082,933.630737 1066.990845,936.839111 1063.467407,937.879944 
	C1060.339600,938.803894 1056.928101,939.091492 1053.640381,939.099609 
	C1019.985901,939.182739 986.331177,939.164124 952.676514,939.127441 
	C950.023254,939.124512 947.316284,939.042603 944.729797,938.522461 
	C940.722595,937.716614 938.168213,935.131836 938.044739,930.929504 
	C937.908020,926.280212 940.575073,923.428894 944.949768,922.434448 
	C947.186951,921.925964 949.585876,922.037842 951.912354,922.029053 
	C962.241882,921.989746 972.571838,922.047546 982.901123,921.982971 
	C986.168945,921.962524 989.435059,921.671265 993.482483,921.464050 
	C995.405090,911.183105 994.564514,901.404785 994.057190,890.510803 
	C989.651733,890.257629 985.791748,889.849548 981.931091,889.843201 
	C949.942627,889.791016 917.953918,889.816772 885.965332,889.806641 
	C882.967529,889.805664 879.942932,889.958801 876.976990,889.627075 
	C868.534424,888.682739 862.868774,883.429077 861.565735,875.061951 
	C860.954773,871.138611 860.970520,867.093445 860.967407,863.103333 
	C860.930359,815.786865 860.942932,768.470337 860.945923,721.153870 
	C860.946045,719.154724 861.042236,717.154053 860.989868,715.156738 
	C860.650574,702.205139 868.086365,694.510620 880.964355,694.425598 
z"/>
<path fill="#48F3B4" opacity="1.000000" stroke="none" 
	d="
M995.502319,654.001099 
	C995.502075,643.674805 995.278198,634.340820 995.579712,625.023926 
	C995.786804,618.622559 994.362549,614.176453 988.421753,610.094849 
	C976.655701,602.010864 974.766052,586.732727 983.056519,575.696167 
	C989.442505,567.195007 998.087219,563.748047 1008.546814,565.735474 
	C1018.220215,567.573547 1024.912109,573.471313 1027.554199,582.848816 
	C1030.367798,592.835022 1028.875854,602.943726 1020.069580,609.004700 
	C1012.762939,614.033569 1011.974670,619.934509 1011.995422,627.575500 
	C1012.165955,690.530212 1012.097534,753.485535 1012.074768,816.440674 
	C1012.073425,820.098206 1012.234192,823.824646 1011.611633,827.395569 
	C1010.847229,831.779053 1007.007080,834.450439 1002.944153,833.987610 
	C998.753723,833.510254 996.284180,830.984070 995.835876,826.859802 
	C995.477417,823.561951 995.516907,820.212097 995.515869,816.885315 
	C995.498596,762.923767 995.503174,708.962219 995.502319,654.001099 
M1011.733948,589.325256 
	C1011.187744,588.128113 1010.900269,586.691650 1010.051697,585.774231 
	C1005.837341,581.218140 1000.702271,580.949524 997.230225,584.932129 
	C994.228394,588.375427 994.558777,593.483948 997.980713,596.534119 
	C1002.000061,600.116943 1007.197205,599.400879 1010.764160,594.577637 
	C1011.490784,593.595093 1011.507812,592.087769 1011.733948,589.325256 
z"/>
<path fill="#46F0B5" opacity="1.000000" stroke="none" 
	d="
M1049.616943,738.000000 
	C1049.616821,751.645203 1049.618164,764.290466 1049.616333,776.935669 
	C1049.615967,778.932251 1049.667847,780.931641 1049.581665,782.924866 
	C1049.238770,790.846130 1046.046265,795.132874 1040.651978,794.997437 
	C1035.289917,794.862732 1032.100342,790.611816 1032.084717,782.598267 
	C1032.003174,740.669617 1031.897461,698.739868 1032.130615,656.812378 
	C1032.228271,639.241943 1043.447144,628.388733 1060.978027,627.890930 
	C1062.973389,627.834229 1064.987549,627.692078 1066.964478,627.883850 
	C1074.028564,628.568909 1079.046631,626.663025 1083.695557,620.315552 
	C1092.236694,608.654053 1109.278687,608.015015 1120.013428,617.679626 
	C1131.007568,627.577820 1131.288574,644.768372 1120.624146,655.031067 
	C1110.128662,665.131287 1092.825317,665.356384 1084.391724,653.448792 
	C1076.409058,642.178162 1066.449707,645.871399 1056.779053,646.676025 
	C1054.303711,646.882019 1051.508911,651.226868 1050.137085,654.249451 
	C1048.994385,656.767639 1049.636353,660.134277 1049.633423,663.125183 
	C1049.608765,687.750122 1049.618164,712.375061 1049.616943,738.000000 
M1097.264282,642.419556 
	C1099.384766,643.114380 1101.509888,644.397644 1103.624634,644.380737 
	C1107.957275,644.346008 1111.114990,640.921387 1111.281616,636.902710 
	C1111.442261,633.030884 1108.328491,629.019165 1104.566772,628.251526 
	C1100.605347,627.443176 1096.418457,629.609680 1095.420898,633.818481 
	C1094.878784,636.105469 1095.920410,638.767822 1097.264282,642.419556 
z"/>
<path fill="#47F2B4" opacity="1.000000" stroke="none" 
	d="
M923.661011,620.605591 
	C926.418396,625.784363 929.759766,628.358032 935.251648,627.684937 
	C938.204102,627.323120 941.256592,627.850159 944.234192,627.608948 
	C961.231628,626.231812 975.554688,639.768677 974.412354,658.206787 
	C973.836731,667.497498 974.321716,676.853638 974.321777,686.180237 
	C974.322144,717.157837 974.334473,748.135437 974.295776,779.113037 
	C974.292053,782.096741 974.375916,785.178650 973.689270,788.039856 
	C972.726257,792.052246 969.704163,794.118652 965.538513,793.962708 
	C961.392395,793.807556 958.539612,791.643860 957.880615,787.475281 
	C957.416321,784.538452 957.488037,781.501709 957.486145,778.509460 
	C957.463013,740.869995 957.473450,703.230591 957.462769,665.591125 
	C957.461914,662.594299 957.597107,659.572510 957.273621,656.605469 
	C956.455933,649.106079 953.274048,646.063782 945.764709,645.404053 
	C943.448547,645.200623 941.085510,645.492554 938.777100,645.246521 
	C931.968079,644.520813 927.191589,646.407288 922.910583,652.606873 
	C916.588440,661.762390 904.382080,664.128479 894.150085,659.948425 
	C883.911072,655.765625 877.471680,645.614807 878.112671,634.667725 
	C879.215149,615.839539 900.207886,604.577209 916.344238,614.266541 
	C918.868591,615.782288 920.924316,618.078491 923.661011,620.605591 
M910.506836,640.952026 
	C910.564453,638.117981 911.733704,634.453064 910.395325,632.662415 
	C908.761658,630.476624 904.761230,628.487732 902.267090,628.960510 
	C899.786865,629.430542 897.051514,632.716736 895.981567,635.389893 
	C894.703613,638.582764 896.230286,641.983704 899.649231,643.729858 
	C903.295105,645.591919 906.703308,645.114868 910.506836,640.952026 
z"/>
<path fill="#0589F9" opacity="1.000000" stroke="none" 
	d="
M1011.792969,590.073792 
	C1011.507812,592.087769 1011.490784,593.595093 1010.764160,594.577637 
	C1007.197205,599.400879 1002.000061,600.116943 997.980713,596.534119 
	C994.558777,593.483948 994.228394,588.375427 997.230225,584.932129 
	C1000.702271,580.949524 1005.837341,581.218140 1010.051697,585.774231 
	C1010.900269,586.691650 1011.187744,588.128113 1011.792969,590.073792 
z"/>
<path fill="#078BF8" opacity="1.000000" stroke="none" 
	d="
M1096.756104,641.840210 
	C1095.920410,638.767822 1094.878784,636.105469 1095.420898,633.818481 
	C1096.418457,629.609680 1100.605347,627.443176 1104.566772,628.251526 
	C1108.328491,629.019165 1111.442261,633.030884 1111.281616,636.902710 
	C1111.114990,640.921387 1107.957275,644.346008 1103.624634,644.380737 
	C1101.509888,644.397644 1099.384766,643.114380 1096.756104,641.840210 
z"/>
<path fill="#0588FA" opacity="1.000000" stroke="none" 
	d="
M910.071655,641.536621 
	C906.703308,645.114868 903.295105,645.591919 899.649231,643.729858 
	C896.230286,641.983704 894.703613,638.582764 895.981567,635.389893 
	C897.051514,632.716736 899.786865,629.430542 902.267090,628.960510 
	C904.761230,628.487732 908.761658,630.476624 910.395325,632.662415 
	C911.733704,634.453064 910.564453,638.117981 910.071655,641.536621 
z"/>
</svg>